…
#### **Most Correlated Vegetation Indexes**

``` r
corr_env %>%
  group_by(ENV) %>%
  mutate(abs_cor = abs(cor_TOL)) %>%
  arrange(ENV, desc(abs_cor))
```

    # A tibble: 36 × 4
    # Groups:   ENV [3]
       ENV   Index      cor_TOL abs_cor
       <fct> <chr>        <dbl>   <dbl>
     1 AC    BI_Mean      0.794   0.794
     2 AC    CIVE_Mean    0.789   0.789
     3 AC    NGRDI_Mean  -0.765   0.765
     4 AC    SAVI_Mean   -0.765   0.765
     5 AC    GLI_Mean    -0.746   0.746
     6 AC    MVARI_Mean  -0.732   0.732
     7 AC    NGBDI_Mean  -0.691   0.691
     8 AC    BGI_Mean     0.690   0.690
     9 AC    EGVI_Mean   -0.601   0.601
    10 AC    TGI_Mean    -0.505   0.505
    # ℹ 26 more rows
…
